^D:\CODE\C++\PTH.FUNCTIONSDEMO\PTH.FUNCTIONSDEMO\DEBUG\MAIN.OBJ
D:\CODE\C++\PTH.FUNCTIONSDEMO\DEBUG\PTH.FUNCTIONSDEMO.EXE
D:\CODE\C++\PTH.FUNCTIONSDEMO\PTH.FUNCTIONSDEMO\DEBUG\PTH.FUNCTIONSDEMO.ILK
D:\CODE\C++\PTH.FUNCTIONSDEMO\DEBUG\PTH.FUNCTIONSDEMO.PDB
